<svg xmlns="http://www.w3.org/2000/svg" width="30" height="22" viewBox="0 0 30 22">
    <g fill="#1A6BCA" fill-rule="nonzero">
        <path d="M28.125 0H1.875A1.877 1.877 0 0 0 0 1.875v15.938a1.877 1.877 0 0 0 1.875 1.875h9.61v.937H9.14a.469.469 0 1 0 0 .938h11.718a.469.469 0 1 0 0-.938h-2.343v-.938h9.609A1.877 1.877 0 0 0 30 17.813V1.876A1.877 1.877 0 0 0 28.125 0zM17.578 20.625h-5.156v-.938h5.156v.938zm10.547-1.875H1.875a.937.937 0 0 1-.938-.938h28.125c0 .518-.42.938-.937.938zm.938-1.875H.938v-15c0-.518.42-.938.937-.938h26.25c.518 0 .938.42.938.938v15z"/>
        <path d="M4.453 7.031h12.644c.1-.328.24-.643.418-.937H4.453c-.776 0-1.405.63-1.406 1.406v1.406c0 .777.63 1.406 1.406 1.406h12.973a4.234 4.234 0 0 1-.366-.937H4.453a.47.47 0 0 1-.469-.469V7.5a.47.47 0 0 1 .47-.469zM23.885 10.293a3.364 3.364 0 1 0-.663.663l1.798 1.797a.469.469 0 0 0 .663-.663l-1.798-1.797zm-.968-.306a2.418 2.418 0 1 1 0-3.42 2.41 2.41 0 0 1 0 3.42z"/>
    </g>
</svg>
