<svg xmlns="http://www.w3.org/2000/svg" width="127" height="31" viewBox="0 0 127 31">
  <g fill="none" fill-rule="evenodd" transform="translate(-7 -18)">
    <path fill="#FFF" d="M16.8888337,17.8181818 C22.3502967,17.8181818 26.7777778,22.3995853 26.7777778,28.0507459 C26.7777778,30.2697214 26.0948742,32.3234382 24.9352236,34 L23.0214498,34 L23.0214498,29.5580531 L21.1817091,29.5580531 L21.1817091,27.1782716 L15.6623767,27.1782716 L15.6623767,26.2271353 L23.0214498,26.2271353 L23.0214498,24.5135259 L21.8175006,23.3714431 L15.6623767,23.3714431 L15.6623767,21.3084786 L13.9609931,21.3084786 L12.5961239,22.5190053 L12.5961239,23.3714431 L10.756328,23.3714431 L10.756328,24.9963437 L11.4051388,26.2271353 L12.5961239,26.2271353 L12.5961239,29.0819713 L10.756328,29.0819713 L10.756328,34 L8.84260933,34 C7.68290353,32.3234382 7,30.2697214 7,28.0507459 C7,22.3995853 11.4275363,17.8181818 16.8888337,17.8181818 Z M22.1016622,34 L18.1154562,34 L18.1154562,30.5098174 L20.2618663,30.5098174 L20.2618663,32.8894847 L22.1016622,32.8894847 L22.1016622,34 Z M17.0422512,34 L14.1292503,34 L14.1292503,32.4135741 L17.0422512,32.4135741 L17.0422512,34 Z M13.2092972,34 L11.6761708,34 L11.6761708,30.0339638 L17.0422512,30.0339638 L17.0422512,31.4618099 L13.2092972,31.4618099 L13.2092972,34 Z M17.9620388,29.5580531 L20.2618663,29.5580531 L20.2618663,28.130207 L15.6623767,28.130207 L15.6623767,29.0819713 L17.9620388,29.0819713 L17.9620388,29.5580531 Z M14.742534,29.0819713 L14.742534,25.2751999 L22.1016622,25.2751999 L22.1016622,24.9263015 L21.465981,24.3233786 L14.742534,24.3233786 L14.742534,22.2602428 L14.297673,22.2602428 L13.5159114,22.9534729 L13.5159114,24.3233786 L11.6761708,24.3233786 L11.6761708,24.7609287 L11.9473131,25.2751999 L13.5159114,25.2751999 L13.5159114,29.0819713 L14.742534,29.0819713 Z M22.1016622,31.9376635 L22.1016622,30.5098174 L21.1817091,30.5098174 L21.1817091,31.9376635 L22.1016622,31.9376635 Z"/>
    <text fill="#FFF" font-family="PT Sans, sans-serif" font-size="12" transform="translate(26 35)">
      <tspan x="5.144" y="11">Новостройки</tspan>
    </text>
    <path fill="#FEFEFE" d="M36.9588996,25.7634218 L39.6796152,25.7634218 L39.6796152,24.1341632 L32,24.1341632 L32.000509,24.6139068 C31.9984164,24.7871093 32.0078612,24.945301 32.0271466,25.0865023 C32.0481287,25.2259991 32.0864168,25.346636 32.1457435,25.449018 C32.2031474,25.5497504 32.2893945,25.627664 32.4021096,25.6816042 C32.5367683,25.7461016 32.701571,25.7634218 32.8498595,25.7634218 L34.7319701,25.7634218 L34.7319701,30.7746937 C34.7319701,30.9427277 34.7383609,31.1079574 34.762906,31.2750566 C34.7840578,31.4310489 34.8280014,31.5707106 34.8950196,31.6916775 C34.9618683,31.8125894 35.0633288,31.9072184 35.1973654,31.9762795 C35.3528364,32.0562276 35.557228,32.080366 35.7308534,32.080366 L36.9588996,32.080366 L36.9588996,25.7634218 Z M104.945514,32.080201 L101.745321,24.1341632 L98.8990522,24.1341632 L95.8798932,32.080201 L98.1633782,32.080201 L100.298801,25.7522049 L100.34495,25.7522049 C100.989287,27.5980491 101.633567,29.4435085 102.277565,31.2895177 C102.521715,31.9877714 103.019177,32.080201 103.749591,32.080201 L104.945514,32.080201 Z M76.8477787,32.1137418 C77.0409723,32.0859744 77.2227417,32.0524886 77.3891846,32.0152088 C77.5555709,31.9800185 77.7163581,31.9408692 77.8692842,31.9017749 L77.8688318,31.6291596 C77.8710374,31.456122 77.861423,31.2980953 77.8421941,31.1567291 C77.821212,31.0173972 77.7828674,30.8964304 77.7235973,30.7940484 C77.6661934,30.693481 77.5799463,30.6155673 77.4672312,30.5615171 C77.3542333,30.5075769 77.2049833,30.4796446 77.0194812,30.4796446 C76.8400872,30.4810742 76.6752844,30.525667 76.4995665,30.554919 C76.2547943,30.5959377 76.0155645,30.6165021 75.7802371,30.6182066 C75.3860452,30.6182066 75.0243728,30.5605824 74.6973123,30.448963 C74.369969,30.3373436 74.0870218,30.1737084 73.8477921,29.959707 C73.6086188,29.7458706 73.4231168,29.485407 73.2929826,29.1768315 C73.1610386,28.8699056 73.0959432,28.5199815 73.0940203,28.1295885 C73.0959432,27.7593749 73.1552699,27.4188532 73.2757897,27.1102228 C73.3965357,26.8013174 73.568521,26.5316713 73.7903882,26.3048585 C74.014348,26.0759012 74.2822514,25.9012141 74.5960214,25.7746387 C74.9076422,25.6499329 75.2558544,25.5866453 75.6423547,25.5847758 C75.8815845,25.5847758 76.1266961,25.6089691 76.3809131,25.6555414 C76.5968985,25.6952955 76.7863595,25.7606176 77.0081136,25.762927 C77.1935591,25.762927 77.342809,25.7350496 77.4558635,25.6811094 C77.5685786,25.6270042 77.6548258,25.5490905 77.712173,25.4485781 C77.7714998,25.3461412 77.8098444,25.2253942 77.8308265,25.0860074 C77.8500554,24.9446412 77.8595001,24.7864495 77.8574641,24.6134669 L77.8579166,24.3907229 C77.4619149,24.277399 77.0677231,24.1841995 76.671778,24.1117294 C76.2776993,24.0390943 75.8757593,24.0018695 75.4701998,24 C74.9324701,24 74.427486,24.0540502 73.9550779,24.1656696 C73.4806903,24.2753646 73.0500767,24.4392197 72.6616535,24.6603691 C72.2733434,24.8801438 71.9384783,25.1553984 71.6572843,25.4844283 C71.3759207,25.8154926 71.1598221,26.200607 71.0068395,26.6415312 C70.8536306,27.0821805 70.777111,27.5787494 70.7753578,28.1295885 C70.777111,28.6259925 70.8422064,29.0708206 70.9685514,29.4668771 C71.0947267,29.861174 71.2726503,30.2109332 71.4983634,30.5122506 C71.7241329,30.8155475 71.988134,31.0741417 72.2885568,31.2898476 C72.5907895,31.5055535 72.9162098,31.6802956 73.2663449,31.8179229 C73.6182333,31.9536807 73.9799057,32.0543581 74.3567916,32.1193503 C74.7317546,32.182638 75.1066045,32.2142543 75.4819068,32.2142543 C75.7459079,32.2142543 75.990567,32.2030374 76.2166193,32.1845074 C76.4423323,32.1659225 76.6524926,32.1417842 76.8477787,32.1137418 Z M83.4776107,25.7632569 L86.1982697,25.7632569 L86.1982697,24.1339983 L78.5188807,24.1339983 L78.5193897,24.6139068 C78.5172972,24.7869444 78.5267419,24.945136 78.5459708,25.0863373 C78.5670095,25.2258341 78.6052975,25.346636 78.6644546,25.449018 C78.7218584,25.5495854 78.8081056,25.6274991 78.9208207,25.6816042 C79.0554793,25.7459366 79.2202821,25.7632569 79.3685706,25.7632569 L81.2506812,25.7632569 L81.2506812,30.7746937 C81.2506812,30.9425627 81.2569023,31.1077925 81.2816171,31.2750566 C81.3027688,31.4310489 81.3467124,31.5707106 81.4136742,31.6915125 C81.4805793,31.8124244 81.5820399,31.9072184 81.7160764,31.9761145 C81.8715475,32.0560626 82.0759391,32.080201 82.2497342,32.080201 L83.4776107,32.080201 L83.4776107,25.7632569 Z M133.830898,32.080201 L130.58563,24.1341632 L127.806719,24.1341632 L124.787503,32.080201 L127.037508,32.080201 L127.657469,30.3727539 L130.799806,30.3727539 L131.129411,31.2280995 C131.405006,31.945378 131.864633,32.080201 132.644364,32.080201 C133.039743,32.080201 133.435236,32.080201 133.830898,32.080201 Z M128.150746,28.8660017 L129.184128,25.7522049 L129.241362,25.7522049 L130.317557,28.8660017 L128.150746,28.8660017 Z M123.119625,34 L124.28908,34 L124.28908,30.5178591 L123.419539,30.5178591 L123.419539,24.1339983 L121.192609,24.1339983 L121.192609,30.5178591 L117.886431,30.5178591 L117.886431,24.1339983 L115.659502,24.1339983 L115.659671,30.7746937 C115.657409,30.941463 115.665949,31.1102668 115.690268,31.2750566 C115.711476,31.4310489 115.755363,31.5707106 115.822382,31.6915125 C115.8894,31.8124244 115.99086,31.9073834 116.124727,31.9761145 C116.280085,32.0558977 116.484647,32.080201 116.658611,32.080201 L122.130922,32.080201 L122.131261,32.6943278 C122.121307,33.4151802 122.249236,33.9881233 123.119625,34 Z M111.560415,32.080201 L113.764101,32.080201 L113.764101,24.1341632 L111.560415,24.1341632 L108.149723,29.1188224 L108.104196,29.1188224 L108.104196,24.1341632 L105.900001,24.1341632 L105.900001,32.080201 L108.104196,32.080201 L111.514436,27.1339213 L111.560415,27.1339213 L111.560415,32.080201 Z M91.1848815,32.2142543 C91.8603239,32.2122199 92.4742905,32.1118723 93.031249,31.9167308 C93.5860585,31.7193899 94.0662148,31.4402314 94.4718308,31.0777157 C94.8756371,30.7150351 95.1873145,30.2815888 95.4074285,29.7793565 C95.6275425,29.2771791 95.7403708,28.7208965 95.7421805,28.1070997 C95.7403708,27.4876944 95.6294654,26.9278378 95.4111046,26.4239558 C95.1930832,25.9214485 94.8833287,25.4898718 94.4795224,25.1293356 C94.0775824,24.76638 93.5974827,24.4893659 93.0408635,24.2941144 C92.4840746,24.1006774 91.8641697,24.0018695 91.1848815,24 C90.5229559,24.0018695 89.9145318,24.098643 89.3635681,24.2902105 C88.810625,24.481888 88.3323916,24.7571425 87.928755,25.1162491 C87.5231389,25.4752458 87.2094256,25.9066576 86.9875018,26.4108694 C86.7654649,26.9149163 86.6545595,27.4802164 86.6507137,28.1070997 C86.652467,28.605703 86.7271768,29.0669167 86.8762571,29.489146 C87.0258464,29.9130798 87.2360066,30.2928058 87.5096787,30.6275541 C87.7831811,30.9642268 88.106509,31.2489938 88.4835645,31.4849891 C88.858584,31.7210944 89.2736449,31.9017749 89.7310092,32.0263158 C90.186281,32.1509666 90.6720362,32.2122199 91.1848815,32.2142543 Z M91.1848815,25.5847758 C91.5369395,25.5866453 91.8506529,25.6536719 92.1280011,25.7856907 C92.405519,25.9178745 92.6408464,26.0982251 92.8359629,26.3307564 C93.0291565,26.5632877 93.1787458,26.8310643 93.2800367,27.1343612 C93.3833071,27.4375481 93.4350553,27.7610795 93.4350553,28.1070997 C93.4350553,28.4364594 93.3833071,28.7508083 93.2800367,29.0521257 C93.1787458,29.3533882 93.0291565,29.6211648 92.8359629,29.8576 C92.6408464,30.0937603 92.405519,30.2815888 92.1280011,30.4192161 C91.8506529,30.5569534 91.5369395,30.6256846 91.1848815,30.6295885 C90.842438,30.6275541 90.5344933,30.5569534 90.2609908,30.4211956 C89.9873188,30.2835683 89.7537445,30.0973343 89.5586846,29.8629336 C89.365491,29.6267733 89.216241,29.3569622 89.1129707,29.0577342 C89.0116798,28.7564717 88.9579521,28.4383289 88.9579521,28.1070997 C88.9579521,27.7593749 89.0076643,27.4319396 89.1052791,27.1287527 C89.2028939,26.8254558 89.3482981,26.5576792 89.5374763,26.3270174 C89.7269938,26.0964656 89.9603983,25.9141355 90.2359933,25.7838212 C90.5133415,25.6536719 90.8289778,25.5866453 91.1848815,25.5847758 Z M62.9820095,32.080366 L65.2091086,32.080366 L65.2091086,24.1341632 L61.2965989,24.1341632 C60.9272349,24.1360327 60.5826988,24.2010249 60.2653093,24.3276002 C59.9476936,24.4541756 59.6702323,24.6308971 59.4310026,24.8560055 C59.191999,25.0790243 59.0061576,25.3399279 58.8726301,25.635142 C58.7389329,25.930631 58.6696524,26.2491037 58.6677295,26.5894605 C58.6696524,26.8928124 58.7116731,27.1697715 58.7921516,27.4170937 C58.8743833,27.6646359 58.9870984,27.8840808 59.1307494,28.0756483 C59.274061,28.2654563 59.4386941,28.4272769 59.6262887,28.5592958 C59.813544,28.6914245 60.0147119,28.7936965 60.2288876,28.8661667 C60.2949444,28.8886005 60.3621324,28.9098247 60.4301121,28.9300592 L60.4301121,28.9570568 C60.3905232,28.9737172 60.3542711,28.9911474 60.3164355,29.0112719 C60.1443937,29.105901 60.010244,29.2324763 59.9106498,29.390503 L59.9105367,29.390503 L58.2552702,32.080366 L60.757625,32.080366 L62.2836621,29.2234038 L62.9820095,29.2234038 L62.9820095,32.080366 Z M62.9935468,25.6296985 L62.9935468,27.7389755 L62.0311418,27.7389755 C61.8844934,27.7389755 61.7422563,27.7185761 61.6044305,27.6773924 C61.4686408,27.6347241 61.3463112,27.5714364 61.2372722,27.4839554 C61.1302126,27.3985638 61.0439655,27.2888139 60.9809627,27.1549805 C60.9177902,27.0210922 60.8852142,26.8628456 60.8832913,26.6786461 C60.8852142,26.4870785 60.9368494,26.3123364 61.036274,26.1541448 C61.1358116,25.9959531 61.2696785,25.8697077 61.4416638,25.7748037 C61.614045,25.6798447 61.8110278,25.631403 62.0311418,25.6296985 L62.9935468,25.6296985 Z M52.9855415,32.2144192 C53.6609839,32.2123848 54.2751201,32.1120373 54.8320787,31.9167308 C55.3867751,31.7195548 55.8670444,31.4403963 56.2726605,31.0778807 C56.6762971,30.7150351 56.9881442,30.2815888 57.2080885,29.7795214 C57.4282025,29.2771791 57.5409176,28.7210614 57.5428405,28.1072646 C57.5409176,27.4878593 57.4301254,26.9280027 57.2117646,26.4239558 C56.9939128,25.9216135 56.6840452,25.4900367 56.280352,25.1295005 C55.8784121,24.76649 55.3981427,24.4893659 54.8416931,24.2942244 C54.2849042,24.1006774 53.6649993,24.0019795 52.9855415,24.00011 C52.3236159,24.0019795 51.7153615,24.098643 51.1642281,24.2903754 C50.6114546,24.4820529 50.1332213,24.7573075 49.729415,25.1164141 C49.3237989,25.4752458 49.0100856,25.9066576 48.7880486,26.4108694 C48.5660117,26.9150813 48.4553892,27.4803814 48.4513737,28.1072646 C48.4532966,28.605868 48.5276671,29.0670816 48.6769171,29.4893109 C48.8263367,29.9132448 49.0368363,30.2929157 49.3103387,30.6275541 C49.5840108,30.9643918 49.9073386,31.2491587 50.284281,31.4851541 C50.659244,31.7212594 51.0743049,31.9018849 51.5316692,32.0264258 C51.9871107,32.1511316 52.4728659,32.2123848 52.9855415,32.2144192 Z M52.9855415,25.5849407 C53.3375995,25.5866453 53.6514826,25.6538368 53.9288308,25.7858557 C54.2063486,25.9180395 54.441563,26.0983351 54.6367926,26.3309213 C54.8299862,26.5634526 54.9792361,26.8312292 55.0806967,27.1345261 C55.1837974,27.4377131 55.2357153,27.7612444 55.2357153,28.1072646 C55.2357153,28.4366244 55.1837974,28.7509732 55.0806967,29.0521257 C54.9792361,29.3535531 54.8299862,29.6213298 54.6367926,29.8576 C54.441563,30.0939253 54.2063486,30.2815888 53.9288308,30.4193261 C53.6514826,30.5571183 53.3375995,30.6258495 52.9855415,30.6295885 C52.6432676,30.6275541 52.3353229,30.5571183 52.0616508,30.4213605 C51.7881484,30.2837333 51.5544045,30.0974993 51.3594577,29.8630435 C51.166151,29.6269382 51.016901,29.3571271 50.9136307,29.0578991 C50.8123398,28.7565817 50.758612,28.4383289 50.758612,28.1072646 C50.758612,27.7595399 50.8083243,27.4321046 50.9059391,27.1289177 C51.0036105,26.8256208 51.148845,26.5578442 51.3383059,26.3270174 C51.5278234,26.0964656 51.7610583,25.9141355 52.036823,25.7839862 C52.3141712,25.6538368 52.6298074,25.5866453 52.9855415,25.5849407 Z M44.2960147,32.080366 C44.6020365,32.0822355 44.9043823,32.0598016 45.2029388,32.0189478 C45.5014387,31.9762795 45.7845555,31.9036444 46.0504795,31.8032419 C46.3162904,31.7027295 46.5516178,31.5651022 46.7565184,31.3901951 C46.9610797,31.2175424 47.121867,30.9998021 47.2385975,30.7393384 C47.3570813,30.4788748 47.416408,30.1663954 47.418444,29.8036598 C47.418444,29.3276552 47.2806183,28.9406713 47.005193,28.6392438 C46.7294283,28.3379264 46.3162904,28.131458 45.7654398,28.0179691 L45.7654398,27.9845932 C46.0753639,27.8878197 46.339365,27.7595399 46.5535407,27.5994787 C46.7678861,27.4377131 46.932406,27.2369631 47.0433114,26.9968988 C47.1544429,26.7568896 47.2118468,26.4724525 47.2118468,26.1430928 C47.2097542,25.8081246 47.1446588,25.5141751 47.0148074,25.2631139 C46.8846166,25.0121627 46.7009244,24.8037698 46.4653707,24.6363406 C46.2303826,24.4688015 45.9528647,24.3425561 45.6333827,24.2587041 C45.3138441,24.175017 44.963709,24.1341632 44.5829773,24.1341632 L40.9555074,24.1341632 L40.9555074,30.7750236 C40.9555074,30.9428926 40.961785,31.1081224 40.9864998,31.2753316 C41.0076515,31.4313788 41.0515386,31.5710405 41.1183872,31.6919524 C41.1854055,31.8127543 41.2867529,31.9075483 41.4209026,31.9763895 C41.5506409,32.0431412 41.721382,32.076792 41.9339176,32.080366 L44.2960147,32.080366 Z M43.8023983,25.5961577 C43.9803784,25.5941232 44.1430886,25.6034706 44.2883232,25.6222205 C44.4316348,25.642455 44.5560569,25.6798447 44.6613633,25.737359 C44.7647467,25.7933336 44.8449424,25.8771857 44.9005365,25.9867706 C44.9560174,26.0964656 44.9847476,26.2416258 44.9847476,26.4219214 C44.9828247,26.6508787 44.9294363,26.8276552 44.8258267,26.9521961 C44.72069,27.0768469 44.5791316,27.164328 44.3973056,27.2127697 C44.2176288,27.2611015 44.0111446,27.2832054 43.779663,27.2813359 L43.1710692,27.2813359 L43.1710692,25.5961577 L43.8023983,25.5961577 Z M43.8370102,28.6987925 C44.0184969,28.696923 44.1908215,28.7061055 44.3514957,28.7285394 C44.5121133,28.7491037 44.6557643,28.791827 44.7801864,28.8569842 C44.9043823,28.9219764 45.0018839,29.0204544 45.072748,29.1509336 C45.143612,29.281083 45.1780543,29.4537907 45.1799772,29.6696615 C45.1799772,29.8669475 45.143612,30.0268986 45.0746709,30.14968 C45.0058994,30.2704819 44.9100378,30.3654409 44.7857854,30.430543 C44.6613633,30.4957002 44.5178819,30.5384235 44.3514957,30.5625619 C44.1869757,30.5867552 44.0071292,30.5979722 43.8139356,30.5959377 L43.1710692,30.5959377 L43.1710692,28.6987925 L43.8370102,28.6987925 Z"/>
  </g>
</svg>
