<svg xmlns="http://www.w3.org/2000/svg" width="231" height="43" viewBox="0 0 231 43">
    <g fill="none" fill-rule="evenodd">
        <path fill="#4A4A4A" d="M52.918 31.92c0-.167.083-.25.25-.25h.943c.092 0 .152.022.182.068a.34.34 0 0 1 .044.183v7.847a.313.313 0 0 1-.044.17c-.03.046-.09.069-.182.069h-.942c-.168 0-.251-.08-.251-.239v-3.515h-3.165v3.515a.31.31 0 0 1-.043.17c-.03.046-.09.069-.182.069h-.942c-.168 0-.251-.08-.251-.239v-7.847c0-.168.083-.252.251-.252h.942c.092 0 .152.023.182.07.029.046.043.106.043.182v3.088h3.165v-3.088zm8.665 4.91c0 .36-.023.733-.07 1.118a2.783 2.783 0 0 1-.345 1.06c-.184.323-.46.587-.829.792-.368.205-.878.307-1.531.307-.628 0-1.122-.102-1.482-.307a2.073 2.073 0 0 1-.81-.791 2.771 2.771 0 0 1-.333-1.061 10.39 10.39 0 0 1-.062-1.118c0-.293.027-.62.082-.98.054-.36.173-.696.357-1.01a2.26 2.26 0 0 1 .81-.791c.356-.213.835-.32 1.438-.32.611 0 1.098.092 1.463.276.364.184.642.425.834.722.193.297.32.63.384.998.062.368.094.737.094 1.105zm-1.407.088c0-.335-.016-.626-.05-.873a1.576 1.576 0 0 0-.2-.615.965.965 0 0 0-.415-.37c-.176-.084-.406-.126-.69-.126-.268 0-.486.042-.654.126a.926.926 0 0 0-.395.377 1.774 1.774 0 0 0-.2.62 5.723 5.723 0 0 0-.058.861c0 .335.02.626.057.873.038.247.102.452.195.615a.9.9 0 0 0 .389.37c.167.084.385.126.653.126.285 0 .517-.04.697-.12.18-.079.32-.2.42-.364.1-.163.168-.37.201-.621a6.75 6.75 0 0 0 .05-.879zm3.266 3.089c-.125 0-.21-.023-.25-.07a.28.28 0 0 1-.064-.194v-5.65c0-.092.02-.155.057-.189.038-.033.111-.05.22-.05h2.675c.728 0 1.26.151 1.594.452.335.301.502.708.502 1.218 0 .168-.046.373-.138.615-.092.243-.288.448-.59.616.184.075.335.173.452.295.117.121.21.247.276.376.067.13.113.262.138.396.026.134.038.255.038.364 0 .276-.056.528-.17.753a1.773 1.773 0 0 1-.458.578 2.04 2.04 0 0 1-.678.364c-.26.084-.531.126-.816.126h-2.788zm3.516-1.896a.874.874 0 0 0-.194-.559c-.13-.163-.354-.245-.672-.245h-1.608v1.57h1.47c.2 0 .366-.025.496-.076a.886.886 0 0 0 .307-.188.618.618 0 0 0 .157-.251.828.828 0 0 0 .044-.251zm-.175-2.486a.655.655 0 0 0-.044-.239.57.57 0 0 0-.145-.207.733.733 0 0 0-.27-.151 1.354 1.354 0 0 0-.42-.056h-1.42v1.356h1.508c.242 0 .435-.07.577-.207a.667.667 0 0 0 .214-.496zm8.439 1.205c0 .36-.023.733-.07 1.118a2.778 2.778 0 0 1-.345 1.06c-.184.323-.46.587-.828.792-.369.205-.88.307-1.532.307-.628 0-1.122-.102-1.482-.307a2.077 2.077 0 0 1-.81-.791 2.771 2.771 0 0 1-.333-1.061 10.39 10.39 0 0 1-.063-1.118c0-.293.028-.62.082-.98.055-.36.174-.696.358-1.01a2.26 2.26 0 0 1 .81-.791c.356-.213.835-.32 1.438-.32.61 0 1.098.092 1.462.276.365.184.643.425.835.722.193.297.32.63.383.998s.095.737.095 1.105zm-1.407.088c0-.335-.016-.626-.05-.873a1.576 1.576 0 0 0-.2-.615.967.967 0 0 0-.415-.37c-.176-.084-.406-.126-.69-.126-.269 0-.486.042-.654.126a.927.927 0 0 0-.395.377 1.78 1.78 0 0 0-.201.62 5.763 5.763 0 0 0-.057.861c0 .335.02.626.057.873a1.8 1.8 0 0 0 .195.615.902.902 0 0 0 .389.37c.167.084.385.126.653.126.284 0 .516-.04.697-.12.18-.079.32-.2.42-.364.1-.163.168-.37.201-.621a6.75 6.75 0 0 0 .05-.879zm7.661 2.511c.025.093.025.168 0 .226-.025.059-.096.113-.213.164-.243.1-.545.173-.904.22-.36.045-.695.068-1.005.068-.586 0-1.057-.088-1.413-.263a1.992 1.992 0 0 1-.816-.704 2.58 2.58 0 0 1-.37-1.023 8.25 8.25 0 0 1-.088-1.224c0-.385.031-.768.094-1.15.063-.38.189-.72.377-1.016.188-.297.46-.538.816-.722.356-.184.822-.276 1.4-.276.142 0 .3.004.47.012.173.009.344.025.516.05.171.026.339.057.502.095.163.037.312.085.445.144.151.067.214.184.189.352l-.088.502c-.025.092-.067.146-.126.163a.824.824 0 0 1-.263.013l-.797-.076a8.004 8.004 0 0 0-.735-.037c-.51 0-.867.146-1.067.439-.201.293-.302.787-.302 1.482 0 .393.023.72.07.98a1.6 1.6 0 0 0 .232.627.86.86 0 0 0 .42.333c.172.062.383.094.635.094.192 0 .445-.01.759-.032.314-.02.6-.048.86-.081a.499.499 0 0 1 .226 0c.05.017.084.08.1.188l.076.452zm4.107-4.42v4.772c0 .15-.092.226-.276.226h-.791a.458.458 0 0 1-.226-.044c-.05-.03-.076-.09-.076-.182v-4.772h-1.733c-.091 0-.154-.018-.188-.056-.033-.038-.05-.107-.05-.207v-.628c0-.092.014-.16.044-.201.03-.042.094-.063.194-.063h4.822c.1 0 .163.021.189.063a.409.409 0 0 1 .037.2v.629c0 .1-.017.17-.05.207-.034.038-.097.056-.188.056h-1.708zm8.54 1.884c0 .51-.038.967-.114 1.368a2.642 2.642 0 0 1-.395 1.018 1.769 1.769 0 0 1-.766.627c-.322.142-.73.214-1.225.214-.209 0-.45-.021-.721-.063a4.913 4.913 0 0 1-.848-.213l-.012.012v2.21a.342.342 0 0 1-.044.176c-.03.05-.095.075-.195.075h-.892c-.1 0-.165-.02-.194-.063a.33.33 0 0 1-.044-.188v-7.96c0-.168.08-.252.238-.252h.892c.092 0 .153.023.182.07.03.045.044.106.044.181v.377l.038.025a5.352 5.352 0 0 1 .891-.49c.176-.075.356-.138.54-.188.184-.05.369-.075.553-.075.41 0 .749.075 1.017.226.268.15.479.362.634.634.155.272.263.6.326.986.063.384.094.816.094 1.293zm-1.42-.013c0-.402-.019-.724-.056-.967-.038-.242-.098-.43-.182-.565a.628.628 0 0 0-.308-.27 1.22 1.22 0 0 0-.433-.069c-.126 0-.268.021-.427.063-.159.042-.316.09-.47.145a4.16 4.16 0 0 0-.44.181 7.923 7.923 0 0 0-.345.176v3.14c.284.083.542.14.772.17.23.028.454.043.671.043.227 0 .417-.031.572-.094a.78.78 0 0 0 .376-.333c.097-.159.166-.37.208-.634.041-.264.063-.592.063-.986zm8.226-.05c0 .36-.023.733-.069 1.118a2.788 2.788 0 0 1-.345 1.06c-.185.323-.46.587-.83.792-.368.205-.878.307-1.53.307-.629 0-1.123-.102-1.483-.307a2.073 2.073 0 0 1-.81-.791 2.766 2.766 0 0 1-.332-1.061 10.39 10.39 0 0 1-.063-1.118c0-.293.027-.62.082-.98.054-.36.173-.696.358-1.01.184-.314.453-.578.81-.791.355-.213.834-.32 1.437-.32.611 0 1.099.092 1.463.276.364.184.642.425.835.722.192.297.32.63.383.998s.094.737.094 1.105zm-1.406.088c0-.335-.017-.626-.05-.873a1.576 1.576 0 0 0-.201-.615.965.965 0 0 0-.415-.37c-.176-.084-.406-.126-.69-.126-.268 0-.486.042-.653.126a.926.926 0 0 0-.396.377 1.774 1.774 0 0 0-.2.62 5.723 5.723 0 0 0-.057.861c0 .335.018.626.056.873.038.247.103.452.195.615a.9.9 0 0 0 .39.37c.166.084.384.126.652.126.285 0 .517-.04.697-.12.18-.079.32-.2.42-.364.1-.163.168-.37.202-.621a6.75 6.75 0 0 0 .05-.879zm2.965-2.787c0-.093.018-.162.056-.208.038-.046.107-.069.207-.069h.816c.118 0 .193.025.226.076.034.05.05.117.05.2v3.667h.026l1.644-2.235 1.118-1.482a.852.852 0 0 1 .157-.163c.054-.042.145-.063.27-.063h.653c.1 0 .172.027.213.082a.29.29 0 0 1 .063.182v5.625c0 .176-.096.264-.289.264h-.79c-.193 0-.29-.088-.29-.264v-3.842h-.012c-.293.401-.586.8-.879 1.193-.293.393-.586.79-.88 1.193a77.629 77.629 0 0 1-1.117 1.494.707.707 0 0 1-.169.163.49.49 0 0 1-.27.063h-.54c-.1 0-.17-.021-.207-.063-.038-.042-.056-.109-.056-.2V34.13zm2.762-.855c-.41 0-.81-.106-1.2-.32-.389-.213-.684-.542-.885-.985a1.603 1.603 0 0 1-.087-.214c-.026-.075-.005-.142.063-.2l.339-.277c.075-.05.134-.065.175-.044a.66.66 0 0 1 .151.12c.251.3.48.523.684.665.205.142.463.213.772.213.143 0 .27-.017.384-.05.112-.033.221-.088.326-.163.104-.075.211-.168.32-.276.109-.11.23-.239.364-.39.1-.117.205-.138.314-.062l.339.213c.084.05.111.118.082.201a3.4 3.4 0 0 1-.094.239c-.226.443-.52.776-.88.998-.36.222-.749.332-1.167.332zm8.263.842c0-.176.096-.264.289-.264h.803c.093 0 .162.017.208.05.046.034.069.105.069.214l.012 4.709.452.037c.11.017.172.052.189.107a.588.588 0 0 1 .012.22l-.125 2.109c-.008.134-.028.218-.057.251-.03.034-.081.05-.157.05h-.69c-.092 0-.155-.016-.189-.05-.033-.033-.054-.108-.062-.226l-.038-1.318h-4.307c-.184 0-.276-.092-.276-.277v-5.612c0-.176.092-.264.276-.264h.829c.175 0 .263.088.263.264v4.72h2.5v-4.72zm4.647 3.19c.008.317.044.581.107.79.063.21.157.375.282.496.126.121.28.207.465.258.184.05.406.075.665.075.227 0 .494-.017.804-.05.31-.034.586-.063.828-.088.118-.017.2-.015.246.006.046.021.077.09.094.207l.075.415a.444.444 0 0 1-.006.226c-.021.058-.09.113-.207.163-.126.05-.273.094-.44.132a6.412 6.412 0 0 1-.527.094c-.184.025-.369.046-.553.063a5.6 5.6 0 0 1-.502.025c-.603 0-1.084-.088-1.444-.264a2.025 2.025 0 0 1-.829-.703 2.585 2.585 0 0 1-.383-1.01 7.275 7.275 0 0 1-.094-1.187c0-.302.025-.64.075-1.018a2.99 2.99 0 0 1 .346-1.054c.18-.327.448-.6.803-.823.356-.221.84-.332 1.45-.332.561 0 1.015.084 1.363.25.347.168.617.384.81.648.192.263.324.565.395.904.072.338.111.675.12 1.01.008.226-.03.41-.113.553-.084.142-.252.213-.503.213h-3.327zm1.255-2.45c-.234 0-.426.034-.577.101a.916.916 0 0 0-.37.295c-.097.13-.166.289-.208.478-.041.188-.07.399-.088.633h2.487c0-.192-.017-.378-.05-.558a1.398 1.398 0 0 0-.183-.484.93.93 0 0 0-.376-.339c-.164-.084-.375-.125-.635-.125zm9.557 4.885a.302.302 0 0 1-.056.195c-.038.046-.112.069-.22.069h-.804c-.193 0-.289-.088-.289-.264V37.32h-2.674v2.423a.298.298 0 0 1-.057.195c-.037.046-.107.069-.207.069h-.816c-.184 0-.276-.088-.276-.264v-5.612c0-.185.092-.277.276-.277h.816c.1 0 .17.025.207.076.038.05.057.117.057.2v2.097h2.674v-2.096c0-.185.096-.277.289-.277h.804c.108 0 .181.025.22.076.037.05.056.117.056.2v5.613zm4.483-4.734v4.772c0 .15-.091.226-.276.226h-.79a.458.458 0 0 1-.227-.044c-.05-.03-.075-.09-.075-.182v-4.772h-1.733c-.092 0-.155-.018-.188-.056-.034-.038-.05-.107-.05-.207v-.628c0-.092.014-.16.044-.201.029-.042.094-.063.194-.063h4.822c.1 0 .163.021.188.063a.408.408 0 0 1 .038.2v.629c0 .1-.017.17-.05.207-.034.038-.097.056-.189.056h-1.708zm8.54 1.884c0 .51-.038.967-.113 1.368a2.645 2.645 0 0 1-.395 1.018 1.77 1.77 0 0 1-.766.627c-.322.142-.73.214-1.225.214-.209 0-.45-.021-.722-.063a4.915 4.915 0 0 1-.847-.213l-.013.012v2.21a.342.342 0 0 1-.044.176c-.03.05-.094.075-.194.075h-.892c-.1 0-.165-.02-.195-.063a.328.328 0 0 1-.043-.188v-7.96c0-.168.08-.252.238-.252h.892c.092 0 .153.023.182.07.03.045.044.106.044.181v.377l.037.025a5.455 5.455 0 0 1 .892-.49 4.14 4.14 0 0 1 .54-.188c.184-.05.368-.075.552-.075.41 0 .75.075 1.017.226.268.15.48.362.635.634.154.272.263.6.326.986.063.384.094.816.094 1.293zm-1.419-.013c0-.402-.019-.724-.056-.967-.038-.242-.098-.43-.182-.565a.63.63 0 0 0-.308-.27 1.222 1.222 0 0 0-.433-.069c-.126 0-.268.021-.427.063-.159.042-.316.09-.47.145a4.192 4.192 0 0 0-.44.181 8.348 8.348 0 0 0-.346.176v3.14c.285.083.542.14.773.17.23.028.454.043.671.043.226 0 .417-.031.572-.094a.78.78 0 0 0 .376-.333c.097-.159.165-.37.208-.634.041-.264.062-.592.062-.986z"/>
        <path fill="#4C8B2B" d="M18.352.265c9.9 0 17.926 8.026 17.926 17.925 0 3.888-1.238 7.485-3.34 10.422h-3.47v-7.781h-3.334v-4.169H16.129v-1.666h13.34v-3.002l-2.183-2H16.13V6.378h-3.084L10.57 8.5v1.493H7.236v2.847l1.176 2.156h2.159v5.001H7.236v8.615h-3.47a17.844 17.844 0 0 1-3.34-10.421C.427 8.29 8.453.265 18.353.265zm9.45 28.347h-7.226v-6.114h3.89v4.169h3.335v1.945zm-9.172 0h-5.28v-2.779h5.28v2.78zm-6.948 0H8.903v-6.947h9.727v2.501h-6.948v4.446zm8.615-7.781h4.17V18.33h-8.338v1.667h4.168v.834zm-5.836-.834v-6.669h13.34v-.61L26.65 11.66H14.461V8.047h-.806L12.238 9.26v2.4H8.903v.766l.492.901h2.843v6.669h2.223zM27.801 25v-2.502h-1.667V25H27.8zM52.272 13.232h4.81V10.27h-13.58l.002.872c-.004.315.013.603.047.86.037.254.105.474.21.66.1.183.253.324.453.422.238.118.53.15.791.15h3.329v9.114c0 .305.01.606.054.91.038.284.115.538.234.758.118.22.297.392.535.517.274.146.636.19.943.19h2.172v-11.49zm178.671.287a3.448 3.448 0 0 0-.275-1.356 3.51 3.51 0 0 0-1.87-1.863 3.503 3.503 0 0 0-2.724 0 3.539 3.539 0 0 0-1.863 1.87 3.5 3.5 0 0 0-.275 1.368c.003.482.094.935.275 1.355a3.542 3.542 0 0 0 1.87 1.864 3.495 3.495 0 0 0 2.724 0 3.516 3.516 0 0 0 2.138-3.238zm-1.106 0a2.68 2.68 0 0 1-.33 1.3 2.422 2.422 0 0 1-.867.893 2.342 2.342 0 0 1-1.21.33 2.295 2.295 0 0 1-1.207-.337 2.366 2.366 0 0 1-.854-.896 2.643 2.643 0 0 1-.326-1.29c.006-.482.116-.912.33-1.288.216-.375.504-.67.866-.886a2.341 2.341 0 0 1 1.21-.33 2.32 2.32 0 0 1 1.207.333c.359.22.643.518.854.896.213.379.323.809.327 1.294v-.02zm-1.941-.68c0 .133-.03.23-.088.288a.354.354 0 0 1-.213.104c-.09.013-.182.02-.282.016h-.31v-.776h.33a.932.932 0 0 1 .423.074c.104.052.156.152.159.294h-.02zm.388.913a.93.93 0 0 0 .378-.336c.094-.146.143-.324.146-.538a1.11 1.11 0 0 0-.149-.582.922.922 0 0 0-.388-.35 1.272 1.272 0 0 0-.55-.116h-1.611v3.397h.912v-1.34h.388l.621 1.34h.951l-.698-1.475zm-55.791 10.97l-5.66-14.453h-5.032l-5.339 14.452h4.038l3.776-11.509h.082l3.417 10.071c.432 1.27 1.311 1.438 2.603 1.438h2.115zm-49.686.06c.342-.05.663-.111.958-.179.294-.064.578-.135.849-.206l-.001-.496a6.057 6.057 0 0 0-.047-.86 1.891 1.891 0 0 0-.21-.66 1.02 1.02 0 0 0-.453-.422c-.2-.098-.464-.149-.792-.149-.317.003-.609.084-.92.137a7.835 7.835 0 0 1-1.272.115 5.745 5.745 0 0 1-1.914-.308 4.284 4.284 0 0 1-1.503-.89 3.93 3.93 0 0 1-.98-1.424c-.234-.558-.35-1.194-.353-1.904a5.26 5.26 0 0 1 .322-1.854 4.334 4.334 0 0 1 .91-1.465c.396-.417.87-.734 1.425-.964.55-.227 1.166-.342 1.85-.346.423 0 .856.044 1.306.129.382.072.717.191 1.109.195.328 0 .592-.05.792-.149.199-.098.351-.24.453-.422.105-.187.172-.407.21-.66.034-.257.05-.545.047-.86v-.404c-.7-.207-1.397-.376-2.097-.508-.697-.132-1.408-.2-2.125-.203-.95 0-1.844.098-2.679.301-.84.2-1.6.498-2.287.9-.687.4-1.279.9-1.776 1.499a6.548 6.548 0 0 0-1.15 2.104c-.271.802-.406 1.705-.41 2.707.004.903.119 1.712.342 2.432.223.717.538 1.353.937 1.901.399.552.866 1.022 1.397 1.415.535.392 1.11.71 1.73.96a9.88 9.88 0 0 0 1.928.548c.662.115 1.325.173 1.989.173.467 0 .9-.02 1.3-.054.398-.034.77-.078 1.115-.129zm11.724-11.55h4.81V10.27h-13.579v.872c-.003.315.014.603.048.86.037.253.105.473.21.66.101.182.254.324.453.422.238.117.53.15.792.15h3.328v9.114c0 .305.011.605.055.91.037.284.115.538.233.758.119.22.298.392.535.517.275.145.636.19.944.19h2.17v-11.49zm89.04 11.49l-5.739-14.453h-4.914L207.58 24.72h3.98l1.095-3.105h5.557l.583 1.555c.487 1.305 1.3 1.55 2.679 1.55h2.098zm-10.044-5.847l1.827-5.663h.101l1.903 5.663h-3.832zm-8.897 9.338h2.068V21.88h-1.538V10.269h-3.938v11.61h-5.846V10.27h-3.938v12.078c-.004.303.012.61.055.91.037.284.115.538.233.758.119.22.298.392.535.517.275.145.636.19.944.19h9.677v1.116c-.017 1.311.21 2.353 1.748 2.375zm-20.44-3.492h3.897V10.27h-3.897l-6.031 9.066h-.08v-9.066h-3.899V24.72h3.898l6.03-8.996h.082v8.996zm-36.03.244c1.194-.004 2.28-.186 3.264-.541a7.538 7.538 0 0 0 2.548-1.526 6.807 6.807 0 0 0 1.654-2.361c.39-.914.589-1.925.592-3.042-.003-1.127-.2-2.145-.585-3.062a6.686 6.686 0 0 0-1.647-2.354c-.711-.66-1.56-1.164-2.544-1.52-.985-.351-2.081-.53-3.282-.534-1.171.003-2.247.18-3.221.528a7.38 7.38 0 0 0-2.537 1.502 6.716 6.716 0 0 0-1.665 2.355c-.392.916-.588 1.945-.595 3.085.003.907.135 1.745.399 2.514a6.894 6.894 0 0 0 1.12 2.07 7.016 7.016 0 0 0 1.722 1.56c.663.43 1.397.758 2.206.984a9.593 9.593 0 0 0 2.57.342zm0-12.058c.622.004 1.177.126 1.667.366.491.24.907.568 1.252.991.342.423.606.91.785 1.462.183.551.275 1.14.275 1.769 0 .599-.092 1.17-.275 1.718a4.665 4.665 0 0 1-.785 1.466c-.345.43-.76.77-1.252 1.021-.49.25-1.045.376-1.667.383a3.594 3.594 0 0 1-1.634-.38 3.874 3.874 0 0 1-1.242-1.014 4.776 4.776 0 0 1-.788-1.465 5.542 5.542 0 0 1-.274-1.73c0-.631.088-1.227.26-1.779a4.44 4.44 0 0 1 .765-1.458c.335-.42.747-.75 1.235-.988.49-.236 1.048-.358 1.678-.362zM98.288 24.721h3.938V10.27h-6.918a4.834 4.834 0 0 0-1.824.352 4.621 4.621 0 0 0-1.475.96c-.423.406-.751.881-.988 1.418a4.33 4.33 0 0 0-.362 1.736c.004.551.078 1.055.22 1.505.146.45.345.85.599 1.198.254.345.545.64.877.88.33.24.686.426 1.065.557.117.041.236.08.356.117v.049a1.95 1.95 0 0 0-.918.789l-2.928 4.892h4.425l2.698-5.197h1.235v5.197zm.02-11.732v3.836h-1.701c-.26 0-.51-.037-.755-.112a1.952 1.952 0 0 1-.649-.351 1.65 1.65 0 0 1-.453-.6 2.107 2.107 0 0 1-.173-.865c.004-.349.094-.667.27-.954.177-.288.413-.518.718-.69.304-.173.653-.26 1.042-.264h1.702zM80.613 24.965c1.194-.003 2.28-.186 3.265-.541a7.534 7.534 0 0 0 2.547-1.526 6.811 6.811 0 0 0 1.654-2.361c.39-.914.589-1.925.592-3.042-.003-1.126-.2-2.145-.585-3.062a6.683 6.683 0 0 0-1.647-2.354c-.71-.66-1.56-1.164-2.545-1.52-.984-.35-2.08-.53-3.281-.534-1.171.003-2.246.18-3.221.528a7.381 7.381 0 0 0-2.537 1.502 6.72 6.72 0 0 0-1.665 2.355c-.392.917-.588 1.945-.595 3.085.003.907.135 1.746.399 2.514a6.875 6.875 0 0 0 1.12 2.07 7.012 7.012 0 0 0 1.722 1.56c.663.43 1.397.758 2.206.985a9.605 9.605 0 0 0 2.57.341zm0-12.057c.622.003 1.177.125 1.667.365.491.24.907.568 1.252.991.342.423.606.91.785 1.462.183.551.274 1.14.274 1.77 0 .598-.091 1.17-.274 1.718a4.662 4.662 0 0 1-.785 1.465A3.81 3.81 0 0 1 82.28 21.7c-.49.251-1.045.376-1.667.383a3.598 3.598 0 0 1-1.634-.379 3.864 3.864 0 0 1-1.242-1.015 4.765 4.765 0 0 1-.788-1.465 5.543 5.543 0 0 1-.274-1.729c0-.632.088-1.228.26-1.78.173-.551.43-1.038.765-1.458a3.55 3.55 0 0 1 1.235-.987c.49-.237 1.048-.36 1.678-.362zM65.246 24.72a11.01 11.01 0 0 0 1.604-.111 6.931 6.931 0 0 0 1.498-.392c.47-.183.887-.434 1.249-.752.361-.314.646-.71.852-1.184.21-.473.315-1.042.318-1.701 0-.866-.243-1.57-.73-2.118-.488-.548-1.219-.924-2.193-1.13v-.06c.548-.177 1.015-.41 1.394-.701.379-.295.67-.66.866-1.096.196-.437.298-.954.298-1.553-.004-.61-.119-1.144-.349-1.6a3.155 3.155 0 0 0-.971-1.14 4.412 4.412 0 0 0-1.471-.688 7.142 7.142 0 0 0-1.858-.226H59.34v12.078c0 .305.01.606.055.91.037.284.115.538.233.758.118.22.297.392.535.517.229.122.53.183.907.19h4.177zm-.873-11.793c.314-.004.602.013.86.047.253.037.473.105.659.21.183.102.325.254.423.453.098.2.149.464.149.792-.004.416-.098.738-.281.964a1.44 1.44 0 0 1-.758.474 4.005 4.005 0 0 1-1.092.125h-1.076v-3.065h1.116zm.061 5.643c.321-.004.626.013.91.054.284.038.538.115.758.234.22.118.392.297.517.534.126.237.186.551.19.944 0 .359-.064.65-.186.873-.122.22-.291.393-.511.51-.22.12-.474.197-.768.24-.291.045-.61.066-.95.061h-1.137v-3.45h1.177z"/>
    </g>
</svg>
