<svg xmlns="http://www.w3.org/2000/svg" width="50" height="50" viewBox="0 0 50 50">
    <g fill="#D13338">
        <path d="M41.744 17.871l-3.846-3.846a1.923 1.923 0 10-2.72 2.72l.564.563h-3.05c-3.146 0-5.937 1.526-7.692 3.87-1.755-2.344-4.545-3.87-7.692-3.87h-3.05l.563-.564a1.923 1.923 0 10-2.72-2.719l-3.845 3.846a1.923 1.923 0 000 2.72l3.846 3.846c.375.375.867.563 1.36.563a1.923 1.923 0 001.36-3.283l-.564-.563h3.05a5.775 5.775 0 015.769 5.77v13.46a1.924 1.924 0 003.846 0v-13.46a5.775 5.775 0 015.77-5.77h3.05l-.564.563a1.923 1.923 0 102.72 2.72l3.845-3.847a1.923 1.923 0 000-2.719z"/>
        <path d="M25 0C11.215 0 0 11.215 0 25c0 13.786 11.215 25 25 25 13.786 0 25-11.214 25-25C50 11.215 38.786 0 25 0zm0 46.154c-11.664 0-21.154-9.49-21.154-21.154S13.336 3.846 25 3.846 46.154 13.336 46.154 25 36.664 46.154 25 46.154z"/>
    </g>
</svg>
